Comparison of Classification Machine Learning Models for Breast Cancer Case Identification
…
accuracy_precision_dataframe

# A tibble: 2,000 × 5
   Model Accuracy Precision False_Negative  seed
   <chr>    <dbl>     <dbl>          <dbl> <int>
 1 rf        96.5     100             3.51     1
 2 knn       95.3      98.3           4.09     1
 3 svm       95.9     100             4.09     1
 4 dt        93.6      89.6           2.34     1
 5 nb        94.2      96.6           4.68     1
 6 lr        96.5      95.3           1.75     1
 7 ab        95.9      95.2           2.34     1
 8 gb        95.3      93.8           2.34     1
 9 ncc       97.7      98.4           1.75     1
10 mlp       96.5      96.8           2.34     1
# ℹ 1,990 more rows
…
